Trabajo Práctico I AID-2022
…
internet%>%select(Sexo)%>%table()

## Sexo
##   0   1   2 
##   1 684 815

aparece un valor 0, aparenta ser un error de
tipeo

Ordenar los datos por la variable Edad. ¿Encontró algún valor
extraño? ¿Qué tipo de error puede ser?

internet%>%select(Edad)%>%arrange(-Edad) 

## # A tibble: 1,500 × 1
##     Edad
##    <dbl>
##  1   280
##  2   180
##  3   120
##  4    99
##  5    88
##  6    60
##  7    60
##  8    60
##  9    60
## 10    60
## # … with 1,490 more rows
…
internet%>%select(Sitio)%>%table()

## Sitio
##   1   2   3   4   5   6   7   8  28 
## 104 273 172 141 271 140 397   1   1

Los sitios 8 y 28 no existen, debe ser un error de carga o
tipeo.

Proceda de forma similar para las variables Temperatura, Autos y
Cigarrillos.

internet%>%select(Cigarrillos)%>%arrange(-Cigarrillos)

## # A tibble: 1,500 × 1
##    Cigarrillos
##          <dbl>
##  1         100
##  2          75
##  3          30
##  4          29
##  5          28
##  6          26
##  7          26
##  8          24
##  9          23
## 10          20
## # … with 1,490 more rows
internet%>%select(Cigarrillos)%>%summary()

##   Cigarrillos     
##  Min.   :  0.000  
##  1st Qu.:  0.000  
##  Median :  2.000  
##  Mean   :  3.049  
##  3rd Qu.:  4.000  
##  Max.   :100.000

Llama la atención el 100.

internet%>%select(Autos)%>%arrange(-Autos)

## # A tibble: 1,500 × 1
##    Autos
##    <dbl>
##  1  2680
##  2   200
##  3   200
##  4   200
##  5   200
##  6   200
##  7   200
##  8   200
##  9   199
## 10   199
## # … with 1,490 more rows

EL 2680 aparenta ser un error de tipeo.

internet%>%select(Temperatura)%>%arrange(-Temperatura)

## # A tibble: 1,500 × 1
##    Temperatura
##          <dbl>
##  1         131
##  2          94
##  3          40
##  4          36
##  5          36
##  6          35
##  7          35
##  8          35
##  9          35
## 10          35
## # … with 1,490 more rows
…
(Datos: Gorriones.xls)

Base de datos: Se han registrado para 49 gorriones las siguientes
variables zoo-métricas: - a) Largo total - b) Extensión alar - c) Largo
del pico y cabeza - d) Largo del húmero - e) Largo de la quilla del
esternón - f) Sobrevida (1) Si, (-1) No

a Indicar en cada caso de que tipo de variable se trata.

# leemos la base de datos
gorriones <- read_excel("C:/Users/Debora/Dropbox/CristinaBrio/gorriones.xlsx")
gorriones

## # A tibble: 49 × 7
##    pajaro largototal extension cabeza humero esternon sobrevida
##     <dbl>      <dbl>     <dbl>  <dbl>  <dbl>    <dbl>     <dbl>
##  1      1        156       245   31.6   18.5     20.5         1
##  2      2        154       240   30.4   17.9     19.6         1
##  3      3        153       240   31     18.4     20.6         1
##  4      4        153       236   30.9   17.7     20.2         1
##  5      5        155       243   31.5   18.6     20.3         1
##  6      6        163       247   32     19       20.9         1
##  7      7        157       238   30.9   18.4     20.2         1
##  8      8        155       239   32.8   18.6     21.2         1
##  9      9        164       248   32.7   19.1     21.1         1
## 10     10        158       238   31     18.8     22           1
## # … with 39 more rows
…
